{
    "name": "MaterialSupplyPlanningProcessInformation",
    "fields": [
        {
            "fieldName": "defaultProcurementMethodCode",
            "fieldType": "String"
        },
        {
            "fieldName": "defaultProcurementMethodCodeText",
            "fieldType": "String"
        },
        {
            "fieldName": "supplyPlanningProcedureCode",
            "fieldType": "String"
        },
        {
            "fieldName": "supplyPlanningProcedureCodeText",
            "fieldType": "String"
        },
        {
            "fieldName": "lotSizeProcedureCode",
            "fieldType": "String"
        },
        {
            "fieldName": "lotSizeProcedureCodeText",
            "fieldType": "String"
        },
        {
            "fieldName": "supplyPlanningAreaID",
            "fieldType": "String"
        },
        {
            "fieldName": "lifeCycleStatusCode",
            "fieldType": "String"
        },
        {
            "fieldName": "lifeCycleStatusCodeText",
            "fieldType": "String"
        }
    ],
    "relationships": [
        {
            "relationshipType": "many-to-many",
            "otherEntityName": "material",
            "otherEntityRelationshipName": "materialSupplyPlanningProcessInformation",
            "relationshipName": "material",
            "otherEntityField": "id",
            "ownerSide": false
        }
    ],
    "changelogDate": "20190802090001",
    "entityTableName": "material_supply_planning_process_information",
    "dto": "no",
    "pagination": "pagination",
    "service": "serviceImpl",
    "jpaMetamodelFiltering": false,
    "fluentMethods": true,
    "clientRootFolder": "",
    "applications": "*"
}